<svg xmlns="http://www.w3.org/2000/svg" width="16px" height="12px">
  <path
    d="M6.3945312 0c-.2425-.0125-.4885937.07-.6835937.25L.41015625 5.140625a.985.985 0 00-.13085937.1523438.985.985 0 00-.07226563.1132812C.08533897 5.5742263 0 5.773924 0 6c0 .3113304.14548234.5799063.359375.7636719.02601625.0307108.04006771.0677848.0703125.0957031L5.7304688 11.75c.3899999.36.9898437.329688 1.3398437-.070312.35-.400001.3196875-1.009141-.0703125-1.369141L3.3984375 7H15.050781C15.570781 7 16 6.55 16 6s-.429219-1-.949219-1H3.4042969l3.5859375-3.3007812c.39-.36.4205469-.9789063.0605468-1.3789063-.175-.2-.4137499-.3078125-.65625-.3203125z"/>
</svg>
