<svg xmlns="http://www.w3.org/2000/svg" viewBox="0 0 16 16">
  <path d="M11.7,0.3c-0.5-0.5-1-0.5-1.4,0l-9.9,9.9C0.1,10.5,0,10.7,0,11v4c0,0.6,0.5,1,1,1h4c0.3,0,0.5-0.1,0.7-0.3l9.9-9.9
	c0.5-0.3,0.5-1,0-1.4L11.7,0.3z M4.6,14.1H2.1v-2.6L8,5.4L10.6,8L4.6,14.1z M12,6.6L9.4,4L11,2.4L13.6,5C13.6,5,12,6.6,12,6.6z"/>
</svg>
